### 404200.MGPy8EG_A14N23LO_GG_1400_10_LLE12k
404200   2   0.0252977000   1.  1.  0.2091630000 
### 404201.MGPy8EG_A14N23LO_GG_1400_50_LLE12k
404201   2   0.0252977000   1.  1.  0.2091630000 
### 404202.MGPy8EG_A14N23LO_GG_1400_100_LLE12k
404202   2   0.0252977000   1.  1.  0.2091630000 
### 404203.MGPy8EG_A14N23LO_GG_1400_700_LLE12k
404203   2   0.0252977000   1.  1.  0.2091630000 
### 404204.MGPy8EG_A14N23LO_GG_1400_1390_LLE12k
404204   2   0.0252977000   1.  1.  0.2091630000 
### 404205.MGPy8EG_A14N23LO_GG_1500_10_LLE12k
404205   2   0.0141903000   1.  1.  0.2272960000 
### 404206.MGPy8EG_A14N23LO_GG_1500_50_LLE12k
404206   2   0.0141903000   1.  1.  0.2272960000 
### 404207.MGPy8EG_A14N23LO_GG_1500_100_LLE12k
404207   2   0.0141903000   1.  1.  0.2272960000 
### 404208.MGPy8EG_A14N23LO_GG_1500_500_LLE12k
404208   2   0.0141903000   1.  1.  0.2272960000 
### 404209.MGPy8EG_A14N23LO_GG_1500_1100_LLE12k
404209   2   0.0141903000   1.  1.  0.2272960000 
### 404210.MGPy8EG_A14N23LO_GG_1500_1490_LLE12k
404210   2   0.0141903000   1.  1.  0.2272960000 
### 404211.MGPy8EG_A14N23LO_GG_1600_10_LLE12k
404211   2   0.0081007800   1.  1.  0.2426790000 
### 404212.MGPy8EG_A14N23LO_GG_1600_50_LLE12k
404212   2   0.0081007800   1.  1.  0.2426790000 
### 404213.MGPy8EG_A14N23LO_GG_1600_100_LLE12k
404213   2   0.0081007800   1.  1.  0.2426790000 
### 404214.MGPy8EG_A14N23LO_GG_1600_300_LLE12k
404214   2   0.0081007800   1.  1.  0.2426790000 
### 404215.MGPy8EG_A14N23LO_GG_1600_900_LLE12k
404215   2   0.0081007800   1.  1.  0.2426790000 
### 404216.MGPy8EG_A14N23LO_GG_1600_1500_LLE12k
404216   2   0.0081007800   1.  1.  0.2426790000 
### 404217.MGPy8EG_A14N23LO_GG_1600_1590_LLE12k
404217   2   0.0081007800   1.  1.  0.2426790000 
### 404218.MGPy8EG_A14N23LO_GG_1700_10_LLE12k
404218   2   0.0047032300   1.  1.  0.2610210000 
### 404219.MGPy8EG_A14N23LO_GG_1700_50_LLE12k
404219   2   0.0047032300   1.  1.  0.2610210000 
### 404220.MGPy8EG_A14N23LO_GG_1700_100_LLE12k
404220   2   0.0047032300   1.  1.  0.2610210000 
### 404221.MGPy8EG_A14N23LO_GG_1700_500_LLE12k
404221   2   0.0047032300   1.  1.  0.2610210000 
### 404222.MGPy8EG_A14N23LO_GG_1700_900_LLE12k
404222   2   0.0047032300   1.  1.  0.2610210000 
### 404223.MGPy8EG_A14N23LO_GG_1700_1300_LLE12k
404223   2   0.0047032300   1.  1.  0.2610210000 
### 404224.MGPy8EG_A14N23LO_GG_1700_1690_LLE12k
404224   2   0.0047032300   1.  1.  0.2610210000 
### 404225.MGPy8EG_A14N23LO_GG_1800_10_LLE12k
404225   2   0.0027613300   1.  1.  0.2810800000 
### 404226.MGPy8EG_A14N23LO_GG_1800_50_LLE12k
404226   2   0.0027613300   1.  1.  0.2810800000 
### 404227.MGPy8EG_A14N23LO_GG_1800_100_LLE12k
404227   2   0.0027613300   1.  1.  0.2810800000 
### 404228.MGPy8EG_A14N23LO_GG_1800_300_LLE12k
404228   2   0.0027613300   1.  1.  0.2810800000 
### 404229.MGPy8EG_A14N23LO_GG_1800_700_LLE12k
404229   2   0.0027613300   1.  1.  0.2810800000 
### 404230.MGPy8EG_A14N23LO_GG_1800_1100_LLE12k
404230   2   0.0027613300   1.  1.  0.2810800000 
### 404231.MGPy8EG_A14N23LO_GG_1800_1500_LLE12k
404231   2   0.0027613300   1.  1.  0.2810800000 
### 404232.MGPy8EG_A14N23LO_GG_1800_1790_LLE12k
404232   2   0.0027613300   1.  1.  0.2810800000 
### 404233.MGPy8EG_A14N23LO_GG_1900_10_LLE12k
404233   2   0.0016354700   1.  1.  0.2990450000 
### 404234.MGPy8EG_A14N23LO_GG_1900_50_LLE12k
404234   2   0.0016354700   1.  1.  0.2990450000 
### 404235.MGPy8EG_A14N23LO_GG_1900_100_LLE12k
404235   2   0.0016354700   1.  1.  0.2990450000 
### 404236.MGPy8EG_A14N23LO_GG_1900_500_LLE12k
404236   2   0.0016354700   1.  1.  0.2990450000 
### 404237.MGPy8EG_A14N23LO_GG_1900_900_LLE12k
404237   2   0.0016354700   1.  1.  0.2990450000 
### 404238.MGPy8EG_A14N23LO_GG_1900_1300_LLE12k
404238   2   0.0016354700   1.  1.  0.2990450000 
### 404239.MGPy8EG_A14N23LO_GG_1900_1700_LLE12k
404239   2   0.0016354700   1.  1.  0.2990450000 
### 404240.MGPy8EG_A14N23LO_GG_1900_1890_LLE12k
404240   2   0.0016354700   1.  1.  0.2990450000 
### 404241.MGPy8EG_A14N23LO_GG_2000_10_LLE12k
404241   2   0.0009810770   1.  1.  0.3184220000 
### 404242.MGPy8EG_A14N23LO_GG_2000_50_LLE12k
404242   2   0.0009810770   1.  1.  0.3184220000 
### 404243.MGPy8EG_A14N23LO_GG_2000_100_LLE12k
404243   2   0.0009810770   1.  1.  0.3184220000 
### 404244.MGPy8EG_A14N23LO_GG_2000_300_LLE12k
404244   2   0.0009810770   1.  1.  0.3184220000 
### 404245.MGPy8EG_A14N23LO_GG_2000_700_LLE12k
404245   2   0.0009810770   1.  1.  0.3184220000 
### 404246.MGPy8EG_A14N23LO_GG_2000_1100_LLE12k
404246   2   0.0009810770   1.  1.  0.3184220000 
### 404247.MGPy8EG_A14N23LO_GG_2000_1500_LLE12k
404247   2   0.0009810770   1.  1.  0.3184220000 
### 404248.MGPy8EG_A14N23LO_GG_2000_1900_LLE12k
404248   2   0.0009810770   1.  1.  0.3184220000 
### 404249.MGPy8EG_A14N23LO_GG_2000_1990_LLE12k
404249   2   0.0009810770   1.  1.  0.3184220000 
### 404250.MGPy8EG_A14N23LO_GG_2300_10_LLE12k
404250   2   0.0002190490   1.  1.  0.3852490000 
### 404251.MGPy8EG_A14N23LO_GG_2300_50_LLE12k
404251   2   0.0002190490   1.  1.  0.3852490000 
### 404252.MGPy8EG_A14N23LO_GG_2300_200_LLE12k
404252   2   0.0002190490   1.  1.  0.3852490000 
### 404253.MGPy8EG_A14N23LO_GG_2300_1000_LLE12k
404253   2   0.0002190490   1.  1.  0.3852490000 
### 404254.MGPy8EG_A14N23LO_GG_2300_2000_LLE12k
404254   2   0.0002190490   1.  1.  0.3852490000 
### 404255.MGPy8EG_A14N23LO_GG_2300_2290_LLE12k
404255   2   0.0002190490   1.  1.  0.3852490000 
### 404256.MGPy8EG_A14N23LO_GG_2600_10_LLE12k
404256   2   0.0000503066   1.  1.  0.4565840000 
### 404257.MGPy8EG_A14N23LO_GG_2600_50_LLE12k
404257   2   0.0000503066   1.  1.  0.4565840000 
### 404258.MGPy8EG_A14N23LO_GG_2600_200_LLE12k
404258   2   0.0000503066   1.  1.  0.4565840000 
### 404259.MGPy8EG_A14N23LO_GG_2600_1000_LLE12k
404259   2   0.0000503066   1.  1.  0.4565840000 
### 404260.MGPy8EG_A14N23LO_GG_2600_2000_LLE12k
404260   2   0.0000503066   1.  1.  0.4565840000 
### 404261.MGPy8EG_A14N23LO_GG_2600_2590_LLE12k
404261   2   0.0000503066   1.  1.  0.4565840000 
### 404270.MGPy8EG_A14N23LO_GG_1000_10_LLEi33
404270   2   0.3253880000   1.  1.  0.1675800000 
### 404271.MGPy8EG_A14N23LO_GG_1000_50_LLEi33
404271   2   0.3253880000   1.  1.  0.1675800000 
### 404272.MGPy8EG_A14N23LO_GG_1000_100_LLEi33
404272   2   0.3253880000   1.  1.  0.1675800000 
### 404273.MGPy8EG_A14N23LO_GG_1000_500_LLEi33
404273   2   0.3253880000   1.  1.  0.1675800000 
### 404274.MGPy8EG_A14N23LO_GG_1000_990_LLEi33
404274   2   0.3253880000   1.  1.  0.1675800000 
### 404275.MGPy8EG_A14N23LO_GG_1100_10_LLEi33
404275   2   0.1634910000   1.  1.  0.1764020000 
### 404276.MGPy8EG_A14N23LO_GG_1100_50_LLEi33
404276   2   0.1634910000   1.  1.  0.1764020000 
### 404277.MGPy8EG_A14N23LO_GG_1100_100_LLEi33
404277   2   0.1634910000   1.  1.  0.1764020000 
### 404278.MGPy8EG_A14N23LO_GG_1100_700_LLEi33
404278   2   0.1634910000   1.  1.  0.1764020000 
### 404279.MGPy8EG_A14N23LO_GG_1100_1090_LLEi33
404279   2   0.1634910000   1.  1.  0.1764020000 
### 404280.MGPy8EG_A14N23LO_GG_1200_10_LLEi33
404280   2   0.0856418000   1.  1.  0.1848140000 
### 404281.MGPy8EG_A14N23LO_GG_1200_50_LLEi33
404281   2   0.0856418000   1.  1.  0.1848140000 
### 404282.MGPy8EG_A14N23LO_GG_1200_100_LLEi33
404282   2   0.0856418000   1.  1.  0.1848140000 
### 404283.MGPy8EG_A14N23LO_GG_1200_500_LLEi33
404283   2   0.0856418000   1.  1.  0.1848140000 
### 404284.MGPy8EG_A14N23LO_GG_1200_1190_LLEi33
404284   2   0.0856418000   1.  1.  0.1848140000 
### 404285.MGPy8EG_A14N23LO_GG_1300_10_LLEi33
404285   2   0.0460525000   1.  1.  0.1964000000 
### 404286.MGPy8EG_A14N23LO_GG_1300_50_LLEi33
404286   2   0.0460525000   1.  1.  0.1964000000 
### 404287.MGPy8EG_A14N23LO_GG_1300_100_LLEi33
404287   2   0.0460525000   1.  1.  0.1964000000 
### 404288.MGPy8EG_A14N23LO_GG_1300_700_LLEi33
404288   2   0.0460525000   1.  1.  0.1964000000 
### 404289.MGPy8EG_A14N23LO_GG_1300_1290_LLEi33
404289   2   0.0460525000   1.  1.  0.1964000000 
### 404290.MGPy8EG_A14N23LO_GG_1400_10_LLEi33
404290   2   0.0252977000   1.  1.  0.2091630000 
### 404291.MGPy8EG_A14N23LO_GG_1400_50_LLEi33
404291   2   0.0252977000   1.  1.  0.2091630000 
### 404292.MGPy8EG_A14N23LO_GG_1400_100_LLEi33
404292   2   0.0252977000   1.  1.  0.2091630000 
### 404293.MGPy8EG_A14N23LO_GG_1400_500_LLEi33
404293   2   0.0252977000   1.  1.  0.2091630000 
### 404294.MGPy8EG_A14N23LO_GG_1400_900_LLEi33
404294   2   0.0252977000   1.  1.  0.2091630000 
### 404295.MGPy8EG_A14N23LO_GG_1400_1390_LLEi33
404295   2   0.0252977000   1.  1.  0.2091630000 
### 404296.MGPy8EG_A14N23LO_GG_1500_50_LLEi33
404296   2   0.0141903000   1.  1.  0.2272960000 
### 404297.MGPy8EG_A14N23LO_GG_1500_100_LLEi33
404297   2   0.0141903000   1.  1.  0.2272960000 
### 404298.MGPy8EG_A14N23LO_GG_1500_300_LLEi33
404298   2   0.0141903000   1.  1.  0.2272960000 
### 404299.MGPy8EG_A14N23LO_GG_1500_700_LLEi33
404299   2   0.0141903000   1.  1.  0.2272960000 
### 404300.MGPy8EG_A14N23LO_GG_1500_1100_LLEi33
404300   2   0.0141903000   1.  1.  0.2272960000 
### 404301.MGPy8EG_A14N23LO_GG_1500_1490_LLEi33
404301   2   0.0141903000   1.  1.  0.2272960000 
### 404302.MGPy8EG_A14N23LO_GG_1600_50_LLEi33
404302   2   0.0081007800   1.  1.  0.2426790000 
### 404303.MGPy8EG_A14N23LO_GG_1600_100_LLEi33
404303   2   0.0081007800   1.  1.  0.2426790000 
### 404304.MGPy8EG_A14N23LO_GG_1600_500_LLEi33
404304   2   0.0081007800   1.  1.  0.2426790000 
### 404305.MGPy8EG_A14N23LO_GG_1600_900_LLEi33
404305   2   0.0081007800   1.  1.  0.2426790000 
### 404306.MGPy8EG_A14N23LO_GG_1600_1300_LLEi33
404306   2   0.0081007800   1.  1.  0.2426790000 
### 404307.MGPy8EG_A14N23LO_GG_1600_1590_LLEi33
404307   2   0.0081007800   1.  1.  0.2426790000 
### 404308.MGPy8EG_A14N23LO_GG_1700_50_LLEi33
404308   2   0.0047032300   1.  1.  0.2610210000 
### 404309.MGPy8EG_A14N23LO_GG_1700_100_LLEi33
404309   2   0.0047032300   1.  1.  0.2610210000 
### 404310.MGPy8EG_A14N23LO_GG_1700_300_LLEi33
404310   2   0.0047032300   1.  1.  0.2610210000 
### 404311.MGPy8EG_A14N23LO_GG_1700_700_LLEi33
404311   2   0.0047032300   1.  1.  0.2610210000 
### 404312.MGPy8EG_A14N23LO_GG_1700_1100_LLEi33
404312   2   0.0047032300   1.  1.  0.2610210000 
### 404313.MGPy8EG_A14N23LO_GG_1700_1500_LLEi33
404313   2   0.0047032300   1.  1.  0.2610210000 
### 404314.MGPy8EG_A14N23LO_GG_1700_1690_LLEi33
404314   2   0.0047032300   1.  1.  0.2610210000 
### 404315.MGPy8EG_A14N23LO_GG_1800_10_LLEi33
404315   2   0.0027613300   1.  1.  0.2810800000 
### 404316.MGPy8EG_A14N23LO_GG_1800_50_LLEi33
404316   2   0.0027613300   1.  1.  0.2810800000 
### 404317.MGPy8EG_A14N23LO_GG_1800_100_LLEi33
404317   2   0.0027613300   1.  1.  0.2810800000 
### 404318.MGPy8EG_A14N23LO_GG_1800_500_LLEi33
404318   2   0.0027613300   1.  1.  0.2810800000 
### 404319.MGPy8EG_A14N23LO_GG_1800_900_LLEi33
404319   2   0.0027613300   1.  1.  0.2810800000 
### 404320.MGPy8EG_A14N23LO_GG_1800_1300_LLEi33
404320   2   0.0027613300   1.  1.  0.2810800000 
### 404321.MGPy8EG_A14N23LO_GG_1800_1700_LLEi33
404321   2   0.0027613300   1.  1.  0.2810800000 
### 404322.MGPy8EG_A14N23LO_GG_1800_1790_LLEi33
404322   2   0.0027613300   1.  1.  0.2810800000 
### 404323.MGPy8EG_A14N23LO_GG_1900_50_LLEi33
404323   2   0.0016354700   1.  1.  0.2990450000 
### 404324.MGPy8EG_A14N23LO_GG_1900_100_LLEi33
404324   2   0.0016354700   1.  1.  0.2990450000 
### 404325.MGPy8EG_A14N23LO_GG_1900_300_LLEi33
404325   2   0.0016354700   1.  1.  0.2990450000 
### 404326.MGPy8EG_A14N23LO_GG_1900_700_LLEi33
404326   2   0.0016354700   1.  1.  0.2990450000 
### 404327.MGPy8EG_A14N23LO_GG_1900_1100_LLEi33
404327   2   0.0016354700   1.  1.  0.2990450000 
### 404328.MGPy8EG_A14N23LO_GG_1900_1500_LLEi33
404328   2   0.0016354700   1.  1.  0.2990450000 
### 404329.MGPy8EG_A14N23LO_GG_1900_1890_LLEi33
404329   2   0.0016354700   1.  1.  0.2990450000 
### 404330.MGPy8EG_A14N23LO_GG_2000_10_LLEi33
404330   2   0.0009810770   1.  1.  0.3184220000 
### 404331.MGPy8EG_A14N23LO_GG_2000_50_LLEi33
404331   2   0.0009810770   1.  1.  0.3184220000 
### 404332.MGPy8EG_A14N23LO_GG_2000_100_LLEi33
404332   2   0.0009810770   1.  1.  0.3184220000 
### 404333.MGPy8EG_A14N23LO_GG_2000_500_LLEi33
404333   2   0.0009810770   1.  1.  0.3184220000 
### 404334.MGPy8EG_A14N23LO_GG_2000_900_LLEi33
404334   2   0.0009810770   1.  1.  0.3184220000 
### 404335.MGPy8EG_A14N23LO_GG_2000_1300_LLEi33
404335   2   0.0009810770   1.  1.  0.3184220000 
### 404336.MGPy8EG_A14N23LO_GG_2000_1700_LLEi33
404336   2   0.0009810770   1.  1.  0.3184220000 
### 404337.MGPy8EG_A14N23LO_GG_2000_1990_LLEi33
404337   2   0.0009810770   1.  1.  0.3184220000 
### 404338.MGPy8EG_A14N23LO_GG_1700_10_LLEi33
404338   2   0.0047032300   1.  1.  0.2610210000 
### 404339.MGPy8EG_A14N23LO_GG_1600_10_LLEi33
404339   2   0.0081007800   1.  1.  0.2426790000 
### 404340.MGPy8EG_A14N23LO_GG_1500_10_LLEi33
404340   2   0.0141903000   1.  1.  0.2272960000 
### 404341.MGPy8EG_A14N23LO_GG_1900_10_LLEi33
404341   2   0.0016354700   1.  1.  0.2990450000 
### 397553.MGPy8EG_A14N23LO_GG_2200_10_LLE12k
397553   2   0.0003593180   1.  1.  0.3596230000 
### 397554.MGPy8EG_A14N23LO_GG_2200_50_LLE12k
397554   2   0.0003593180   1.  1.  0.3596230000 
### 397555.MGPy8EG_A14N23LO_GG_2200_200_LLE12k
397555   2   0.0003593180   1.  1.  0.3596230000 
### 397556.MGPy8EG_A14N23LO_GG_2200_2190_LLE12k
397556   2   0.0003593180   1.  1.  0.3596230000 
### 397557.MGPy8EG_A14N23LO_GG_2400_10_LLE12k
397557   2   0.0001339650   1.  1.  0.4079450000 
### 397558.MGPy8EG_A14N23LO_GG_2400_50_LLE12k
397558   2   0.0001339650   1.  1.  0.4079450000 
### 397559.MGPy8EG_A14N23LO_GG_2400_200_LLE12k
397559   2   0.0001339650   1.  1.  0.4079450000 
### 397560.MGPy8EG_A14N23LO_GG_2400_1000_LLE12k
397560   2   0.0001339650   1.  1.  0.4079450000 
### 397561.MGPy8EG_A14N23LO_GG_2400_1500_LLE12k
397561   2   0.0001339650   1.  1.  0.4079450000 
### 397562.MGPy8EG_A14N23LO_GG_2400_2000_LLE12k
397562   2   0.0001339650   1.  1.  0.4079450000 
### 397563.MGPy8EG_A14N23LO_GG_2400_2390_LLE12k
397563   2   0.0001339650   1.  1.  0.4079450000 
### 397564.MGPy8EG_A14N23LO_GG_2500_10_LLE12k
397564   2   0.0000820068   1.  1.  0.4310710000 
### 397565.MGPy8EG_A14N23LO_GG_2500_50_LLE12k
397565   2   0.0000820068   1.  1.  0.4310710000 
### 397566.MGPy8EG_A14N23LO_GG_2500_200_LLE12k
397566   2   0.0000820068   1.  1.  0.4310710000 
### 397567.MGPy8EG_A14N23LO_GG_2500_1000_LLE12k
397567   2   0.0000820068   1.  1.  0.4310710000 
### 397568.MGPy8EG_A14N23LO_GG_2500_1500_LLE12k
397568   2   0.0000820068   1.  1.  0.4310710000 
### 397569.MGPy8EG_A14N23LO_GG_2500_2000_LLE12k
397569   2   0.0000820068   1.  1.  0.4310710000 
### 397570.MGPy8EG_A14N23LO_GG_2500_2490_LLE12k
397570   2   0.0000820068   1.  1.  0.4310710000 
### 397571.MGPy8EG_A14N23LO_GG_2600_10_LLE12k
397571   2   0.0000503066   1.  1.  0.4565840000 
### 397572.MGPy8EG_A14N23LO_GG_2600_50_LLE12k
397572   2   0.0000503066   1.  1.  0.4565840000 
### 397573.MGPy8EG_A14N23LO_GG_2600_200_LLE12k
397573   2   0.0000503066   1.  1.  0.4565840000 
### 397574.MGPy8EG_A14N23LO_GG_2600_1000_LLE12k
397574   2   0.0000503066   1.  1.  0.4565840000 
### 397575.MGPy8EG_A14N23LO_GG_2600_1500_LLE12k
397575   2   0.0000503066   1.  1.  0.4565840000 
### 397576.MGPy8EG_A14N23LO_GG_2600_2000_LLE12k
397576   2   0.0000503066   1.  1.  0.4565840000 
### 397577.MGPy8EG_A14N23LO_GG_2600_2590_LLE12k
397577   2   0.0000503066   1.  1.  0.4565840000 
### 397578.MGPy8EG_A14N23LO_GG_2700_200_LLE12k
397578   2   0.0000308937   1.  1.  0.4841060000 
### 397579.MGPy8EG_A14N23LO_GG_2700_1000_LLE12k
397579   2   0.0000308937   1.  1.  0.4841060000 
### 397580.MGPy8EG_A14N23LO_GG_2700_1500_LLE12k
397580   2   0.0000308937   1.  1.  0.4841060000 
### 397581.MGPy8EG_A14N23LO_GG_2700_2690_LLE12k
397581   2   0.0000308937   1.  1.  0.4841060000 
### 397582.MGPy8EG_A14N23LO_GG_2800_200_LLE12k
397582   2   0.0000189382   1.  1.  0.5098670000 
### 397583.MGPy8EG_A14N23LO_GG_2800_1000_LLE12k
397583   2   0.0000189382   1.  1.  0.5098670000 
### 397584.MGPy8EG_A14N23LO_GG_2800_2000_LLE12k
397584   2   0.0000189382   1.  1.  0.5098670000 
### 397585.MGPy8EG_A14N23LO_GG_2800_2790_LLE12k
397585   2   0.0000189382   1.  1.  0.5098670000 
### 397586.MGPy8EG_A14N23LO_GG_1600_10_LLEi33
397586   2   0.0081007800   1.  1.  0.2426790000 
### 397587.MGPy8EG_A14N23LO_GG_1600_50_LLEi33
397587   2   0.0081007800   1.  1.  0.2426790000 
### 397588.MGPy8EG_A14N23LO_GG_1600_800_LLEi33
397588   2   0.0081007800   1.  1.  0.2426790000 
### 397589.MGPy8EG_A14N23LO_GG_1600_1590_LLEi33
397589   2   0.0081007800   1.  1.  0.2426790000 
### 397590.MGPy8EG_A14N23LO_GG_1900_10_LLEi33
397590   2   0.0016354700   1.  1.  0.2990450000 
### 397591.MGPy8EG_A14N23LO_GG_1900_50_LLEi33
397591   2   0.0016354700   1.  1.  0.2990450000 
### 397592.MGPy8EG_A14N23LO_GG_1900_100_LLEi33
397592   2   0.0016354700   1.  1.  0.2990450000 
### 397593.MGPy8EG_A14N23LO_GG_1900_500_LLEi33
397593   2   0.0016354700   1.  1.  0.2990450000 
### 397594.MGPy8EG_A14N23LO_GG_1900_1000_LLEi33
397594   2   0.0016354700   1.  1.  0.2990450000 
### 397595.MGPy8EG_A14N23LO_GG_1900_1890_LLEi33
397595   2   0.0016354700   1.  1.  0.2990450000 
### 397596.MGPy8EG_A14N23LO_GG_2000_100_LLEi33
397596   2   0.0009810770   1.  1.  0.3184220000 
### 397597.MGPy8EG_A14N23LO_GG_2000_1000_LLEi33
397597   2   0.0009810770   1.  1.  0.3184220000 
### 397598.MGPy8EG_A14N23LO_GG_2000_1500_LLEi33
397598   2   0.0009810770   1.  1.  0.3184220000 
### 397599.MGPy8EG_A14N23LO_GG_2000_1990_LLEi33
397599   2   0.0009810770   1.  1.  0.3184220000 
### 397600.MGPy8EG_A14N23LO_GG_2100_100_LLEi33
397600   2   0.0005919180   1.  1.  0.3393260000 
### 397601.MGPy8EG_A14N23LO_GG_2100_1000_LLEi33
397601   2   0.0005919180   1.  1.  0.3393260000 
### 397602.MGPy8EG_A14N23LO_GG_2100_1500_LLEi33
397602   2   0.0005919180   1.  1.  0.3393260000 
### 397603.MGPy8EG_A14N23LO_GG_2100_2090_LLEi33
397603   2   0.0005919180   1.  1.  0.3393260000 
### 397604.MGPy8EG_A14N23LO_GG_2200_100_LLEi33
397604   2   0.0003593180   1.  1.  0.3596230000 
### 397605.MGPy8EG_A14N23LO_GG_2200_1100_LLEi33
397605   2   0.0003593180   1.  1.  0.3596230000 
### 397606.MGPy8EG_A14N23LO_GG_2200_1600_LLEi33
397606   2   0.0003593180   1.  1.  0.3596230000 
### 397607.MGPy8EG_A14N23LO_GG_2200_2190_LLEi33
397607   2   0.0003593180   1.  1.  0.3596230000 
### 449876.MGPy8EG_A14N23LO_GG_2000_100_LLE12k
449876   2   0.0009810770   1.0000000000  1.  0.3184220000 
### 449877.MGPy8EG_A14N23LO_GG_2000_1000_LLE12k
449877   2   0.0009810770   1.0000000000  1.  0.3184220000 
### 449878.MGPy8EG_A14N23LO_GG_2000_1500_LLE12k
449878   2   0.0009810770   1.0000000000  1.  0.3184220000 
### 449879.MGPy8EG_A14N23LO_GG_2000_1990_LLE12k
449879   2   0.0009810770   1.0000000000  1.  0.3184220000 
### 449880.MGPy8EG_A14N23LO_GG_2200_1000_LLE12k
449880   2   0.0003593180   1.0000000000  1.  0.3596230000 
### 449881.MGPy8EG_A14N23LO_GG_2200_1500_LLE12k
449881   2   0.0003593180   1.0000000000  1.  0.3596230000 
### 449882.MGPy8EG_A14N23LO_GG_2200_2000_LLE12k
449882   2   0.0003593180   1.0000000000  1.  0.3596230000 
### 449883.MGPy8EG_A14N23LO_GG_1600_100_LLEi33
449883   2   0.0081007800   1.0000000000  1.  0.2426790000 
### 449884.MGPy8EG_A14N23LO_GG_1600_500_LLEi33
449884   2   0.0081007800   1.0000000000  1.  0.2426790000 
### 449885.MGPy8EG_A14N23LO_GG_1600_1500_LLEi33
449885   2   0.0081007800   1.0000000000  1.  0.2426790000 
### 449886.MGPy8EG_A14N23LO_GG_1800_100_LLEi33
449886   2   0.0027613300   1.0000000000  1.  0.2810800000 
### 449887.MGPy8EG_A14N23LO_GG_1800_500_LLEi33
449887   2   0.0027613300   1.0000000000  1.  0.2810800000 
### 449888.MGPy8EG_A14N23LO_GG_1800_1000_LLEi33
449888   2   0.0027613300   1.0000000000  1.  0.2810800000 
### 449889.MGPy8EG_A14N23LO_GG_1800_1500_LLEi33
449889   2   0.0027613300   1.0000000000  1.  0.2810800000 
### 449890.MGPy8EG_A14N23LO_GG_1800_1790_LLEi33
449890   2   0.0027613300   1.0000000000  1.  0.2810800000 
### 449891.MGPy8EG_A14N23LO_GG_1900_1500_LLEi33
449891   2   0.0016354700   1.0000000000  1.  0.2990450000 
### 449892.MGPy8EG_A14N23LO_GG_2000_500_LLEi33
449892   2   0.0009810770   1.0000000000  1.  0.3184220000 
### 449893.MGPy8EG_A14N23LO_GG_2100_500_LLEi33
449893   2   0.0005919180   1.0000000000  1.  0.3393260000 
### 449894.MGPy8EG_A14N23LO_GG_2200_1500_LLEi33
449894   2   0.0003593180   1.0000000000  1.  0.3596230000 
### 449895.MGPy8EG_A14N23LO_GG_2200_2190_LLEi33
449895   2   0.0003593180   1.0000000000  1.  0.3596230000 
