### 396587.MadGraphPythia8EvtGen_A14N23LO_C1N2_Wh_hall_150p0_0p0_1T
396587   125   3.2738400000   0.1159399971  1.  0.0388458202 
### 396591.MadGraphPythia8EvtGen_A14N23LO_C1N2_Wh_hall_175p0_0p0_1T
396591   125   1.8902600000   0.1180899963  1.  0.0426558251 
### 396592.MadGraphPythia8EvtGen_A14N23LO_C1N2_Wh_hall_175p0_25p0_1T
396592   125   1.8902600000   0.1179900020  1.  0.0426558251 
### 396597.MadGraphPythia8EvtGen_A14N23LO_C1N2_Wh_hall_200p0_0p0_1T
396597   125   1.1702600000   0.1214400008  1.  0.0468530070 
### 396598.MadGraphPythia8EvtGen_A14N23LO_C1N2_Wh_hall_200p0_25p0_1T
396598   125   1.1702600000   0.1208800003  1.  0.0468530070 
### 396599.MadGraphPythia8EvtGen_A14N23LO_C1N2_Wh_hall_200p0_50p0_1T
396599   125   1.1702600000   0.1194100007  1.  0.0468530070 
### 396603.MadGraphPythia8EvtGen_A14N23LO_C1N2_Wh_hall_225p0_0p0_1T
396603   125   0.7624050000   0.1246199980  1.  0.0498109273 
### 396604.MadGraphPythia8EvtGen_A14N23LO_C1N2_Wh_hall_225p0_25p0_1T
396604   125   0.7624050000   0.1237199977  1.  0.0498109273 
### 396605.MadGraphPythia8EvtGen_A14N23LO_C1N2_Wh_hall_225p0_50p0_1T
396605   125   0.7624050000   0.1227499992  1.  0.0498109273 
### 396606.MadGraphPythia8EvtGen_A14N23LO_C1N2_Wh_hall_225p0_75p0_1T
396606   125   0.7624050000   0.1209999993  1.  0.0498109273 
### 396608.MadGraphPythia8EvtGen_A14N23LO_C1N2_Wh_hall_250p0_0p0_1T
396608   125   0.5172590000   0.1265899986  1.  0.0534650920 
### 396609.MadGraphPythia8EvtGen_A14N23LO_C1N2_Wh_hall_250p0_100p0_1T
396609   125   0.5172590000   0.1218400002  1.  0.0534650920 
### 396610.MadGraphPythia8EvtGen_A14N23LO_C1N2_Wh_hall_250p0_25p0_1T
396610   125   0.5172590000   0.1264400035  1.  0.0534650920 
### 396611.MadGraphPythia8EvtGen_A14N23LO_C1N2_Wh_hall_250p0_50p0_1T
396611   125   0.5172590000   0.1266299933  1.  0.0534650920 
### 396612.MadGraphPythia8EvtGen_A14N23LO_C1N2_Wh_hall_250p0_75p0_1T
396612   125   0.5172590000   0.1244100034  1.  0.0534650920 
### 396613.MadGraphPythia8EvtGen_A14N23LO_C1N2_Wh_hall_275p0_0p0_1T
396613   125   0.3622480000   0.1292400062  1.  0.0566186701 
### 396614.MadGraphPythia8EvtGen_A14N23LO_C1N2_Wh_hall_275p0_25p0_1T
396614   125   0.3622480000   0.1296299994  1.  0.0566186701 
### 396615.MadGraphPythia8EvtGen_A14N23LO_C1N2_Wh_hall_275p0_50p0_1T
396615   125   0.3622480000   0.1288200021  1.  0.0566186701 
### 396616.MadGraphPythia8EvtGen_A14N23LO_C1N2_Wh_hall_275p0_75p0_1T
396616   125   0.3622480000   0.1272300035  1.  0.0566186701 
### 396617.MadGraphPythia8EvtGen_A14N23LO_C1N2_Wh_hall_300p0_0p0_1T
396617   125   0.2603190000   1.0000000000  1.  0.0597428540 
### 396618.MadGraphPythia8EvtGen_A14N23LO_C1N2_Wh_hall_300p0_100p0_1T
396618   125   0.2603190000   0.1270399988  1.  0.0597428540 
### 396619.MadGraphPythia8EvtGen_A14N23LO_C1N2_Wh_hall_300p0_25p0_1T
396619   125   0.2603190000   0.1326700002  1.  0.0597428540 
### 396620.MadGraphPythia8EvtGen_A14N23LO_C1N2_Wh_hall_300p0_50p0_1T
396620   125   0.2603190000   0.1315000057  1.  0.0597428540 
### 396621.MadGraphPythia8EvtGen_A14N23LO_C1N2_Wh_hall_300p0_75p0_1T
396621   125   0.2603190000   0.1287699938  1.  0.0597428540 
### 396622.MadGraphPythia8EvtGen_A14N23LO_C1N2_Wh_hall_325p0_0p0_1T
396622   125   0.1913140000   0.1329199970  1.  0.0630194340 
### 396623.MadGraphPythia8EvtGen_A14N23LO_C1N2_Wh_hall_325p0_50p0_1T
396623   125   0.1913140000   0.1330900043  1.  0.0630194340 
### 396624.MadGraphPythia8EvtGen_A14N23LO_C1N2_Wh_hall_350p0_0p0_1T
396624   125   0.1431260000   0.1355199963  1.  0.0656565544 
### 396625.MadGraphPythia8EvtGen_A14N23LO_C1N2_Wh_hall_350p0_100p0_1T
396625   125   0.1431260000   0.1321099997  1.  0.0656565544 
### 396626.MadGraphPythia8EvtGen_A14N23LO_C1N2_Wh_hall_350p0_25p0_1T
396626   125   0.1431260000   0.1347000003  1.  0.0656565544 
### 396627.MadGraphPythia8EvtGen_A14N23LO_C1N2_Wh_hall_350p0_50p0_1T
396627   125   0.1431260000   0.1346800029  1.  0.0656565544 
### 396628.MadGraphPythia8EvtGen_A14N23LO_C1N2_Wh_hall_350p0_75p0_1T
396628   125   0.1431260000   0.1343899965  1.  0.0656565544 
### 396629.MadGraphPythia8EvtGen_A14N23LO_C1N2_Wh_hall_375p0_0p0_1T
396629   125   0.1088400000   0.1370099932  1.  0.0689341235 
### 396630.MadGraphPythia8EvtGen_A14N23LO_C1N2_Wh_hall_375p0_50p0_1T
396630   125   0.1088400000   0.1366599947  1.  0.0689341235 
### 396631.MadGraphPythia8EvtGen_A14N23LO_C1N2_Wh_hall_400p0_0p0_1T
396631   125   0.0839069000   0.1391099989  1.  0.0721467484 
### 396632.MadGraphPythia8EvtGen_A14N23LO_C1N2_Wh_hall_400p0_25p0_1T
396632   125   0.0839069000   0.1380999982  1.  0.0721467484 
### 396633.MadGraphPythia8EvtGen_A14N23LO_C1N2_Wh_hall_425p0_0p0_1T
396633   125   0.0654553000   0.1395599991  1.  0.0755425458 
### 396634.MGPy8EG_A14N23LO_C1N2_Wh_hall_150p0_0p0_2L7
396634   125   3.2738400000   0.1044199988  1.  0.0388458202 
### 396638.MGPy8EG_A14N23LO_C1N2_Wh_hall_175p0_0p0_2L7
396638   125   1.8902600000   0.1090499982  1.  0.0426558251 
### 396639.MGPy8EG_A14N23LO_C1N2_Wh_hall_175p0_25p0_2L7
396639   125   1.8902600000   0.1086400002  1.  0.0426558251 
### 396644.MGPy8EG_A14N23LO_C1N2_Wh_hall_200p0_0p0_2L7
396644   125   1.1702600000   0.1140199974  1.  0.0468530070 
### 396645.MGPy8EG_A14N23LO_C1N2_Wh_hall_200p0_25p0_2L7
396645   125   1.1702600000   0.1136899963  1.  0.0468530070 
### 396646.MGPy8EG_A14N23LO_C1N2_Wh_hall_200p0_50p0_2L7
396646   125   1.1702600000   0.1115299985  1.  0.0468530070 
### 396650.MGPy8EG_A14N23LO_C1N2_Wh_hall_225p0_0p0_2L7
396650   125   0.7624050000   0.1191399992  1.  0.0498109273 
### 396651.MGPy8EG_A14N23LO_C1N2_Wh_hall_225p0_25p0_2L7
396651   125   0.7624050000   0.1183499992  1.  0.0498109273 
### 396652.MGPy8EG_A14N23LO_C1N2_Wh_hall_225p0_50p0_2L7
396652   125   0.7624050000   0.1174099967  1.  0.0498109273 
### 396653.MGPy8EG_A14N23LO_C1N2_Wh_hall_225p0_75p0_2L7
396653   125   0.7624050000   0.1142100021  1.  0.0498109273 
### 396655.MGPy8EG_A14N23LO_C1N2_Wh_hall_250p0_0p0_2L7
396655   125   0.5172590000   0.1236400008  1.  0.0534650920 
### 396656.MGPy8EG_A14N23LO_C1N2_Wh_hall_250p0_100p0_2L7
396656   125   0.5172590000   0.1158600003  1.  0.0534650920 
### 396657.MGPy8EG_A14N23LO_C1N2_Wh_hall_250p0_25p0_2L7
396657   125   0.5172590000   0.1230399981  1.  0.0534650920 
### 396658.MGPy8EG_A14N23LO_C1N2_Wh_hall_250p0_50p0_2L7
396658   125   0.5172590000   0.1214599982  1.  0.0534650920 
### 396659.MGPy8EG_A14N23LO_C1N2_Wh_hall_250p0_75p0_2L7
396659   125   0.5172590000   0.1190600023  1.  0.0534650920 
### 396660.MGPy8EG_A14N23LO_C1N2_Wh_hall_275p0_0p0_2L7
396660   125   0.3622480000   0.1283400059  1.  0.0566186701 
### 396661.MGPy8EG_A14N23LO_C1N2_Wh_hall_275p0_25p0_2L7
396661   125   0.3622480000   0.1274199933  1.  0.0566186701 
### 396662.MGPy8EG_A14N23LO_C1N2_Wh_hall_275p0_50p0_2L7
396662   125   0.3622480000   0.1262599975  1.  0.0566186701 
### 396663.MGPy8EG_A14N23LO_C1N2_Wh_hall_275p0_75p0_2L7
396663   125   0.3622480000   0.1240099967  1.  0.0566186701 
### 396664.MGPy8EG_A14N23LO_C1N2_Wh_hall_300p0_0p0_2L7
396664   125   0.2603190000   0.1329299957  1.  0.0597428540 
### 396665.MGPy8EG_A14N23LO_C1N2_Wh_hall_300p0_25p0_2L7
396665   125   0.2603190000   0.1324599981  1.  0.0597428540 
### 396666.MGPy8EG_A14N23LO_C1N2_Wh_hall_300p0_50p0_2L7
396666   125   0.2603190000   0.1312199980  1.  0.0597428540 
### 396667.MGPy8EG_A14N23LO_C1N2_Wh_hall_300p0_75p0_2L7
396667   125   0.2603190000   0.1283899993  1.  0.0597428540 
### 396668.MGPy8EG_A14N23LO_C1N2_Wh_hall_300p0_100p0_2L7
396668   125   0.2603190000   0.1268800050  1.  0.0597428540 
### 396669.MGPy8EG_A14N23LO_C1N2_Wh_hall_325p0_0p0_2L7
396669   125   0.1913140000   0.1368400007  1.  0.0630194340 
### 396670.MGPy8EG_A14N23LO_C1N2_Wh_hall_325p0_50p0_2L7
396670   125   0.1913140000   0.1357100010  1.  0.0630194340 
### 396671.MGPy8EG_A14N23LO_C1N2_Wh_hall_350p0_0p0_2L7
396671   125   0.1431260000   0.1423200071  1.  0.0656565544 
### 396672.MGPy8EG_A14N23LO_C1N2_Wh_hall_350p0_25p0_2L7
396672   125   0.1431260000   0.1413699985  1.  0.0656565544 
### 396673.MGPy8EG_A14N23LO_C1N2_Wh_hall_350p0_50p0_2L7
396673   125   0.1431260000   0.1392100006  1.  0.0656565544 
### 396674.MGPy8EG_A14N23LO_C1N2_Wh_hall_350p0_75p0_2L7
396674   125   0.1431260000   0.1379999965  1.  0.0656565544 
### 396675.MGPy8EG_A14N23LO_C1N2_Wh_hall_350p0_100p0_2L7
396675   125   0.1431260000   0.1374700069  1.  0.0656565544 
### 396676.MGPy8EG_A14N23LO_C1N2_Wh_hall_375p0_0p0_2L7
396676   125   0.1088400000   0.1471499950  1.  0.0689341235 
### 396677.MGPy8EG_A14N23LO_C1N2_Wh_hall_375p0_50p0_2L7
396677   125   0.1088400000   0.1453000009  1.  0.0689341235 
### 396678.MGPy8EG_A14N23LO_C1N2_Wh_hall_400p0_0p0_2L7
396678   125   0.0839069000   0.1455799937  1.  0.0721467484 
### 396679.MGPy8EG_A14N23LO_C1N2_Wh_hall_400p0_25p0_2L7
396679   125   0.0839069000   0.1502999961  1.  0.0721467484 
### 396680.MGPy8EG_A14N23LO_C1N2_Wh_hall_425p0_0p0_2L7
396680   125   0.0654553000   0.1535799950  1.  0.0755425458 
### 396681.MadGraphPythia8EvtGen_A14N23LO_C1N2_Wh_hbb_150p0_0p0_lep
396681   125   3.2738400000   0.1899999976  1.  0.0388458202 
### 396685.MadGraphPythia8EvtGen_A14N23LO_C1N2_Wh_hbb_175p0_0p0_lep
396685   125   1.8902600000   0.1899999976  1.  0.0426558251 
### 396686.MadGraphPythia8EvtGen_A14N23LO_C1N2_Wh_hbb_175p0_25p0_lep
396686   125   1.8902600000   0.1899999976  1.  0.0426558251 
### 396691.MadGraphPythia8EvtGen_A14N23LO_C1N2_Wh_hbb_200p0_0p0_lep
396691   125   1.1702600000   0.1899999976  1.  0.0468530070 
### 396692.MadGraphPythia8EvtGen_A14N23LO_C1N2_Wh_hbb_200p0_25p0_lep
396692   125   1.1702600000   0.1899999976  1.  0.0468530070 
### 396693.MadGraphPythia8EvtGen_A14N23LO_C1N2_Wh_hbb_200p0_50p0_lep
396693   125   1.1702600000   0.1899999976  1.  0.0468530070 
### 396697.MadGraphPythia8EvtGen_A14N23LO_C1N2_Wh_hbb_225p0_0p0_lep
396697   125   0.7624050000   0.1899999976  1.  0.0498109273 
### 396698.MadGraphPythia8EvtGen_A14N23LO_C1N2_Wh_hbb_225p0_25p0_lep
396698   125   0.7624050000   0.1899999976  1.  0.0498109273 
### 396699.MadGraphPythia8EvtGen_A14N23LO_C1N2_Wh_hbb_225p0_50p0_lep
396699   125   0.7624050000   0.1899999976  1.  0.0498109273 
### 396700.MadGraphPythia8EvtGen_A14N23LO_C1N2_Wh_hbb_225p0_75p0_lep
396700   125   0.7624050000   0.1899999976  1.  0.0498109273 
### 396702.MadGraphPythia8EvtGen_A14N23LO_C1N2_Wh_hbb_250p0_0p0_lep
396702   125   0.5172590000   0.1899999976  1.  0.0534650920 
### 396703.MadGraphPythia8EvtGen_A14N23LO_C1N2_Wh_hbb_250p0_25p0_lep
396703   125   0.5172590000   0.1899999976  1.  0.0534650920 
### 396704.MadGraphPythia8EvtGen_A14N23LO_C1N2_Wh_hbb_250p0_50p0_lep
396704   125   0.5172590000   0.1899999976  1.  0.0534650920 
### 396705.MadGraphPythia8EvtGen_A14N23LO_C1N2_Wh_hbb_250p0_75p0_lep
396705   125   0.5172590000   0.1899999976  1.  0.0534650920 
### 396706.MadGraphPythia8EvtGen_A14N23LO_C1N2_Wh_hbb_250p0_100p0_lep
396706   125   0.5172590000   0.1899999976  1.  0.0534650920 
### 396707.MadGraphPythia8EvtGen_A14N23LO_C1N2_Wh_hbb_275p0_0p0_lep
396707   125   0.3622480000   0.1899999976  1.  0.0566186701 
### 396708.MadGraphPythia8EvtGen_A14N23LO_C1N2_Wh_hbb_275p0_25p0_lep
396708   125   0.3622480000   0.1899999976  1.  0.0566186701 
### 396709.MadGraphPythia8EvtGen_A14N23LO_C1N2_Wh_hbb_275p0_50p0_lep
396709   125   0.3622480000   0.1899999976  1.  0.0566186701 
### 396710.MadGraphPythia8EvtGen_A14N23LO_C1N2_Wh_hbb_275p0_75p0_lep
396710   125   0.3622480000   0.1899999976  1.  0.0566186701 
### 396711.MadGraphPythia8EvtGen_A14N23LO_C1N2_Wh_hbb_300p0_0p0_lep
396711   125   0.2603190000   0.1899999976  1.  0.0597428540 
### 396712.MadGraphPythia8EvtGen_A14N23LO_C1N2_Wh_hbb_300p0_25p0_lep
396712   125   0.2603190000   0.1899999976  1.  0.0597428540 
### 396713.MadGraphPythia8EvtGen_A14N23LO_C1N2_Wh_hbb_300p0_50p0_lep
396713   125   0.2603190000   0.1899999976  1.  0.0597428540 
### 396714.MadGraphPythia8EvtGen_A14N23LO_C1N2_Wh_hbb_300p0_75p0_lep
396714   125   0.2603190000   0.1899999976  1.  0.0597428540 
### 396715.MadGraphPythia8EvtGen_A14N23LO_C1N2_Wh_hbb_300p0_100p0_lep
396715   125   0.2603190000   0.1899999976  1.  0.0597428540 
### 396716.MadGraphPythia8EvtGen_A14N23LO_C1N2_Wh_hbb_300p0_150p0_lep
396716   125   0.2603190000   0.1899999976  1.  0.0597428540 
### 396717.MadGraphPythia8EvtGen_A14N23LO_C1N2_Wh_hbb_325p0_0p0_lep
396717   125   0.1913140000   0.1899999976  1.  0.0630194340 
### 396718.MadGraphPythia8EvtGen_A14N23LO_C1N2_Wh_hbb_325p0_50p0_lep
396718   125   0.1913140000   0.1899999976  1.  0.0630194340 
### 396719.MadGraphPythia8EvtGen_A14N23LO_C1N2_Wh_hbb_350p0_0p0_lep
396719   125   0.1431260000   0.1899999976  1.  0.0656565544 
### 396720.MadGraphPythia8EvtGen_A14N23LO_C1N2_Wh_hbb_350p0_25p0_lep
396720   125   0.1431260000   0.1899999976  1.  0.0656565544 
### 396721.MadGraphPythia8EvtGen_A14N23LO_C1N2_Wh_hbb_350p0_50p0_lep
396721   125   0.1431260000   0.1899999976  1.  0.0656565544 
### 396722.MadGraphPythia8EvtGen_A14N23LO_C1N2_Wh_hbb_350p0_75p0_lep
396722   125   0.1431260000   0.1899999976  1.  0.0656565544 
### 396723.MadGraphPythia8EvtGen_A14N23LO_C1N2_Wh_hbb_350p0_100p0_lep
396723   125   0.1431260000   0.1899999976  1.  0.0656565544 
### 396724.MadGraphPythia8EvtGen_A14N23LO_C1N2_Wh_hbb_350p0_150p0_lep
396724   125   0.1431260000   0.1899999976  1.  0.0656565544 
### 396725.MadGraphPythia8EvtGen_A14N23LO_C1N2_Wh_hbb_350p0_200p0_lep
396725   125   0.1431260000   0.1899999976  1.  0.0656565544 
### 396726.MadGraphPythia8EvtGen_A14N23LO_C1N2_Wh_hbb_375p0_0p0_lep
396726   125   0.1088400000   0.1899999976  1.  0.0689341235 
### 396727.MadGraphPythia8EvtGen_A14N23LO_C1N2_Wh_hbb_375p0_50p0_lep
396727   125   0.1088400000   0.1899999976  1.  0.0689341235 
### 396728.MadGraphPythia8EvtGen_A14N23LO_C1N2_Wh_hbb_400p0_0p0_lep
396728   125   0.0839069000   0.1899999976  1.  0.0721467484 
### 396729.MadGraphPythia8EvtGen_A14N23LO_C1N2_Wh_hbb_400p0_25p0_lep
396729   125   0.0839069000   0.1899999976  1.  0.0721467484 
### 396730.MadGraphPythia8EvtGen_A14N23LO_C1N2_Wh_hbb_400p0_50p0_lep
396730   125   0.0839069000   0.1899999976  1.  0.0721467484 
### 396731.MadGraphPythia8EvtGen_A14N23LO_C1N2_Wh_hbb_400p0_100p0_lep
396731   125   0.0839069000   0.1899999976  1.  0.0721467484 
### 396732.MadGraphPythia8EvtGen_A14N23LO_C1N2_Wh_hbb_400p0_150p0_lep
396732   125   0.0839069000   0.1899999976  1.  0.0721467484 
### 396733.MadGraphPythia8EvtGen_A14N23LO_C1N2_Wh_hbb_400p0_200p0_lep
396733   125   0.0839069000   0.1899999976  1.  0.0721467484 
### 396734.MadGraphPythia8EvtGen_A14N23LO_C1N2_Wh_hbb_400p0_250p0_lep
396734   125   0.0839069000   0.1899999976  1.  0.0721467484 
### 396735.MadGraphPythia8EvtGen_A14N23LO_C1N2_Wh_hbb_425p0_0p0_lep
396735   125   0.0654553000   0.1899999976  1.  0.0755425458 
### 396736.MadGraphPythia8EvtGen_A14N23LO_C1N2_Wh_hbb_450p0_0p0_lep
396736   125   0.0515901000   0.1899999976  1.  0.0783284002 
### 396737.MadGraphPythia8EvtGen_A14N23LO_C1N2_Wh_hbb_450p0_50p0_lep
396737   125   0.0515901000   0.1899999976  1.  0.0783284002 
### 396738.MadGraphPythia8EvtGen_A14N23LO_C1N2_Wh_hbb_450p0_100p0_lep
396738   125   0.0515901000   0.1899999976  1.  0.0783284002 
### 396739.MadGraphPythia8EvtGen_A14N23LO_C1N2_Wh_hbb_450p0_150p0_lep
396739   125   0.0515901000   0.1899999976  1.  0.0783284002 
### 396740.MadGraphPythia8EvtGen_A14N23LO_C1N2_Wh_hbb_450p0_200p0_lep
396740   125   0.0515901000   0.1899999976  1.  0.0783284002 
### 396741.MadGraphPythia8EvtGen_A14N23LO_C1N2_Wh_hbb_450p0_250p0_lep
396741   125   0.0515901000   0.1899999976  1.  0.0783284002 
### 396742.MadGraphPythia8EvtGen_A14N23LO_C1N2_Wh_hbb_450p0_300p0_lep
396742   125   0.0515901000   0.1899999976  1.  0.0783284002 
### 396743.MadGraphPythia8EvtGen_A14N23LO_C1N2_Wh_hbb_500p0_0p0_lep
396743   125   0.0329135000   0.1899999976  1.  0.0830792836 
### 396744.MadGraphPythia8EvtGen_A14N23LO_C1N2_Wh_hbb_500p0_50p0_lep
396744   125   0.0329135000   0.1899999976  1.  0.0830792836 
### 396745.MadGraphPythia8EvtGen_A14N23LO_C1N2_Wh_hbb_500p0_100p0_lep
396745   125   0.0329135000   0.1899999976  1.  0.0830792836 
### 396746.MadGraphPythia8EvtGen_A14N23LO_C1N2_Wh_hbb_500p0_150p0_lep
396746   125   0.0329135000   0.1899999976  1.  0.0830792836 
### 396747.MadGraphPythia8EvtGen_A14N23LO_C1N2_Wh_hbb_500p0_200p0_lep
396747   125   0.0329135000   0.1899999976  1.  0.0830792836 
### 396748.MadGraphPythia8EvtGen_A14N23LO_C1N2_Wh_hbb_500p0_250p0_lep
396748   125   0.0329135000   0.1899999976  1.  0.0830792836 
### 396749.MadGraphPythia8EvtGen_A14N23LO_C1N2_Wh_hbb_500p0_300p0_lep
396749   125   0.0329135000   0.1899999976  1.  0.0830792836 
### 396750.MadGraphPythia8EvtGen_A14N23LO_C1N2_Wh_hbb_500p0_350p0_lep
396750   125   0.0329135000   0.1899999976  1.  0.0830792836 
### 396752.MadGraphPythia8EvtGen_A14N23LO_C1N2_Wh_hbb_550p0_0p0_lep
396752   125   0.0216440000   0.1899999976  1.  0.0888819072 
### 396753.MadGraphPythia8EvtGen_A14N23LO_C1N2_Wh_hbb_550p0_50p0_lep
396753   125   0.0216440000   0.1899999976  1.  0.0888819072 
### 396754.MadGraphPythia8EvtGen_A14N23LO_C1N2_Wh_hbb_550p0_100p0_lep
396754   125   0.0216440000   0.1899999976  1.  0.0888819072 
### 396755.MadGraphPythia8EvtGen_A14N23LO_C1N2_Wh_hbb_550p0_150p0_lep
396755   125   0.0216440000   0.1899999976  1.  0.0888819072 
### 396756.MadGraphPythia8EvtGen_A14N23LO_C1N2_Wh_hbb_550p0_200p0_lep
396756   125   0.0216440000   0.1899999976  1.  0.0888819072 
### 396757.MadGraphPythia8EvtGen_A14N23LO_C1N2_Wh_hbb_550p0_250p0_lep
396757   125   0.0216440000   0.1899999976  1.  0.0888819072 
### 396758.MadGraphPythia8EvtGen_A14N23LO_C1N2_Wh_hbb_550p0_300p0_lep
396758   125   0.0216440000   0.1899999976  1.  0.0888819072 
### 396759.MadGraphPythia8EvtGen_A14N23LO_C1N2_Wh_hbb_600p0_0p0_lep
396759   125   0.0145767000   0.1899999976  1.  0.0947848278 
### 396760.MadGraphPythia8EvtGen_A14N23LO_C1N2_Wh_hbb_600p0_50p0_lep
396760   125   0.0145767000   0.1899999976  1.  0.0947848278 
### 396761.MadGraphPythia8EvtGen_A14N23LO_C1N2_Wh_hbb_600p0_100p0_lep
396761   125   0.0145767000   0.1899999976  1.  0.0947848278 
### 396762.MadGraphPythia8EvtGen_A14N23LO_C1N2_Wh_hbb_600p0_150p0_lep
396762   125   0.0145767000   0.1899999976  1.  0.0947848278 
### 396763.MadGraphPythia8EvtGen_A14N23LO_C1N2_Wh_hbb_600p0_200p0_lep
396763   125   0.0145767000   0.1899999976  1.  0.0947848278 
### 396764.MadGraphPythia8EvtGen_A14N23LO_C1N2_Wh_hbb_600p0_250p0_lep
396764   125   0.0145767000   0.1899999976  1.  0.0947848278 
### 396765.MadGraphPythia8EvtGen_A14N23LO_C1N2_Wh_hbb_600p0_300p0_lep
396765   125   0.0145767000   0.1899999976  1.  0.0947848278 
### 396766.MadGraphPythia8EvtGen_A14N23LO_C1N2_Wh_hbb_600p0_350p0_lep
396766   125   0.0145767000   0.1899999976  1.  0.0947848278 
### 396767.MadGraphPythia8EvtGen_A14N23LO_C1N2_Wh_hbb_600p0_400p0_lep
396767   125   0.0145767000   0.1899999976  1.  0.0947848278 
### 396768.MadGraphPythia8EvtGen_A14N23LO_C1N2_Wh_hbb_650p0_0p0_lep
396768   125   0.0100188000   0.1899999976  1.  0.0975633808 
### 396769.MadGraphPythia8EvtGen_A14N23LO_C1N2_Wh_hbb_650p0_50p0_lep
396769   125   0.0100188000   0.1899999976  1.  0.0975633808 
### 396770.MadGraphPythia8EvtGen_A14N23LO_C1N2_Wh_hbb_650p0_100p0_lep
396770   125   0.0100188000   0.1899999976  1.  0.0975633808 
### 396771.MadGraphPythia8EvtGen_A14N23LO_C1N2_Wh_hbb_650p0_150p0_lep
396771   125   0.0100188000   0.1899999976  1.  0.0975633808 
### 396772.MadGraphPythia8EvtGen_A14N23LO_C1N2_Wh_hbb_650p0_200p0_lep
396772   125   0.0100188000   0.1899999976  1.  0.0975633808 
### 396773.MadGraphPythia8EvtGen_A14N23LO_C1N2_Wh_hbb_650p0_250p0_lep
396773   125   0.0100188000   0.1899999976  1.  0.0975633808 
### 396774.MadGraphPythia8EvtGen_A14N23LO_C1N2_Wh_hbb_650p0_300p0_lep
396774   125   0.0100188000   0.1899999976  1.  0.0975633808 
### 396775.MadGraphPythia8EvtGen_A14N23LO_C1N2_Wh_hbb_700p0_0p0_lep
396775   125   0.0069900800   0.1899999976  1.  0.1021466135 
### 396776.MadGraphPythia8EvtGen_A14N23LO_C1N2_Wh_hbb_700p0_50p0_lep
396776   125   0.0069900800   0.1899999976  1.  0.1021466135 
### 396777.MadGraphPythia8EvtGen_A14N23LO_C1N2_Wh_hbb_700p0_100p0_lep
396777   125   0.0069900800   0.1899999976  1.  0.1021466135 
### 396778.MadGraphPythia8EvtGen_A14N23LO_C1N2_Wh_hbb_700p0_150p0_lep
396778   125   0.0069900800   0.1899999976  1.  0.1021466135 
### 396779.MadGraphPythia8EvtGen_A14N23LO_C1N2_Wh_hbb_700p0_200p0_lep
396779   125   0.0069900800   0.1899999976  1.  0.1021466135 
### 396780.MadGraphPythia8EvtGen_A14N23LO_C1N2_Wh_hbb_700p0_250p0_lep
396780   125   0.0069900800   0.1899999976  1.  0.1021466135 
### 396781.MadGraphPythia8EvtGen_A14N23LO_C1N2_Wh_hbb_700p0_300p0_lep
396781   125   0.0069900800   0.1899999976  1.  0.1021466135 
### 396782.MadGraphPythia8EvtGen_A14N23LO_C1N2_Wh_hbb_700p0_350p0_lep
396782   125   0.0069900800   0.1899999976  1.  0.1021466135 
### 396783.MadGraphPythia8EvtGen_A14N23LO_C1N2_Wh_hbb_700p0_400p0_lep
396783   125   0.0069900800   0.1899999976  1.  0.1021466135 
### 396784.MadGraphPythia8EvtGen_A14N23LO_C1N2_Wh_hbb_750p0_0p0_lep
396784   125   0.0049543800   0.1899999976  1.  0.1074473496 
### 396785.MadGraphPythia8EvtGen_A14N23LO_C1N2_Wh_hbb_750p0_50p0_lep
396785   125   0.0049543800   0.1899999976  1.  0.1074473496 
### 396786.MadGraphPythia8EvtGen_A14N23LO_C1N2_Wh_hbb_750p0_100p0_lep
396786   125   0.0049543800   0.1899999976  1.  0.1074473496 
### 396787.MadGraphPythia8EvtGen_A14N23LO_C1N2_Wh_hbb_750p0_150p0_lep
396787   125   0.0049543800   0.1899999976  1.  0.1074473496 
### 396788.MadGraphPythia8EvtGen_A14N23LO_C1N2_Wh_hbb_750p0_200p0_lep
396788   125   0.0049543800   0.1899999976  1.  0.1074473496 
### 396789.MadGraphPythia8EvtGen_A14N23LO_C1N2_Wh_hbb_750p0_250p0_lep
396789   125   0.0049543800   0.1899999976  1.  0.1074473496 
### 396790.MadGraphPythia8EvtGen_A14N23LO_C1N2_Wh_hbb_750p0_300p0_lep
396790   125   0.0049543800   0.1899999976  1.  0.1074473496 
### 396791.MadGraphPythia8EvtGen_A14N23LO_C1N2_Wh_hbb_800p0_0p0_lep
396791   125   0.0035411100   0.1899999976  1.  0.1099127110 
### 396792.MadGraphPythia8EvtGen_A14N23LO_C1N2_Wh_hbb_800p0_50p0_lep
396792   125   0.0035411100   0.1899999976  1.  0.1099127110 
### 396793.MadGraphPythia8EvtGen_A14N23LO_C1N2_Wh_hbb_800p0_100p0_lep
396793   125   0.0035411100   0.1899999976  1.  0.1099127110 
### 396794.MadGraphPythia8EvtGen_A14N23LO_C1N2_Wh_hbb_800p0_150p0_lep
396794   125   0.0035411100   0.1899999976  1.  0.1099127110 
### 396795.MadGraphPythia8EvtGen_A14N23LO_C1N2_Wh_hbb_800p0_200p0_lep
396795   125   0.0035411100   0.1899999976  1.  0.1099127110 
### 396796.MadGraphPythia8EvtGen_A14N23LO_C1N2_Wh_hbb_800p0_250p0_lep
396796   125   0.0035411100   0.1899999976  1.  0.1099127110 
### 396797.MadGraphPythia8EvtGen_A14N23LO_C1N2_Wh_hbb_800p0_300p0_lep
396797   125   0.0035411100   0.1899999976  1.  0.1099127110 
### 396798.MadGraphPythia8EvtGen_A14N23LO_C1N2_Wh_hbb_800p0_350p0_lep
396798   125   0.0035411100   0.1899999976  1.  0.1099127110 
### 396799.MadGraphPythia8EvtGen_A14N23LO_C1N2_Wh_hbb_800p0_400p0_lep
396799   125   0.0035411100   0.1899999976  1.  0.1099127110 
### 396800.MadGraphPythia8EvtGen_A14N23LO_C1N2_Wh_hbb_900p0_0p0_lep
396800   125   0.0018733800   0.1899999976  1.  0.1156551260 
### 396801.MadGraphPythia8EvtGen_A14N23LO_C1N2_Wh_hbb_900p0_50p0_lep
396801   125   0.0018733800   0.1899999976  1.  0.1156551260 
### 396802.MadGraphPythia8EvtGen_A14N23LO_C1N2_Wh_hbb_900p0_100p0_lep
396802   125   0.0018733800   0.1899999976  1.  0.1156551260 
### 396803.MadGraphPythia8EvtGen_A14N23LO_C1N2_Wh_hbb_900p0_150p0_lep
396803   125   0.0018733800   0.1899999976  1.  0.1156551260 
### 396804.MadGraphPythia8EvtGen_A14N23LO_C1N2_Wh_hbb_900p0_200p0_lep
396804   125   0.0018733800   0.1899999976  1.  0.1156551260 
### 396805.MadGraphPythia8EvtGen_A14N23LO_C1N2_Wh_hbb_900p0_250p0_lep
396805   125   0.0018733800   0.1899999976  1.  0.1156551260 
### 396806.MadGraphPythia8EvtGen_A14N23LO_C1N2_Wh_hbb_900p0_300p0_lep
396806   125   0.0018733800   0.1899999976  1.  0.1156551260 
### 396807.MadGraphPythia8EvtGen_A14N23LO_C1N2_Wh_hbb_900p0_350p0_lep
396807   125   0.0018733800   0.1899999976  1.  0.1156551260 
### 396808.MadGraphPythia8EvtGen_A14N23LO_C1N2_Wh_hbb_900p0_400p0_lep
396808   125   0.0018733800   0.1899999976  1.  0.1156551260 
### 396809.MadGraphPythia8EvtGen_A14N23LO_C1N2_Wh_hbb_1000p0_0p0_lep
396809   125   0.0010145100   0.1899999976  1.  0.1216823885 
### 396810.MadGraphPythia8EvtGen_A14N23LO_C1N2_Wh_hbb_1000p0_50p0_lep
396810   125   0.0010145100   0.1899999976  1.  0.1216823885 
### 396811.MadGraphPythia8EvtGen_A14N23LO_C1N2_Wh_hbb_1000p0_100p0_lep
396811   125   0.0010145100   0.1899999976  1.  0.1216823885 
### 396812.MadGraphPythia8EvtGen_A14N23LO_C1N2_Wh_hbb_1000p0_150p0_lep
396812   125   0.0010145100   0.1899999976  1.  0.1216823885 
### 396813.MadGraphPythia8EvtGen_A14N23LO_C1N2_Wh_hbb_1000p0_200p0_lep
396813   125   0.0010145100   0.1899999976  1.  0.1216823885 
### 396814.MadGraphPythia8EvtGen_A14N23LO_C1N2_Wh_hbb_1000p0_250p0_lep
396814   125   0.0010145100   0.1899999976  1.  0.1216823885 
### 396815.MadGraphPythia8EvtGen_A14N23LO_C1N2_Wh_hbb_1000p0_300p0_lep
396815   125   0.0010145100   0.1899999976  1.  0.1216823885 
### 396816.MadGraphPythia8EvtGen_A14N23LO_C1N2_Wh_hbb_1000p0_350p0_lep
396816   125   0.0010145100   0.1899999976  1.  0.1216823885 
### 396817.MadGraphPythia8EvtGen_A14N23LO_C1N2_Wh_hbb_1000p0_400p0_lep
396817   125   0.0010145100   0.1899999976  1.  0.1216823885 
### 396820.MadGraphPythia8EvtGen_A14N23LO_C1N2_Wh_hbb_600p0_450p0_lep
396820   125   0.0145767000   0.1899999976  1.  0.0947848278 
### 396822.MadGraphPythia8EvtGen_A14N23LO_C1N2_Wh_hbb_650p0_450p0_lep
396822   125   0.0100188000   0.1899999976  1.  0.0975633808 
### 396823.MadGraphPythia8EvtGen_A14N23LO_C1N2_Wh_hbb_650p0_500p0_lep
396823   125   0.0100188000   0.1899999976  1.  0.0975633808 
### 396824.MadGraphPythia8EvtGen_A14N23LO_C1N2_Wh_hbb_700p0_450p0_lep
396824   125   0.0069900800   0.1899999976  1.  0.1021466135 
### 396825.MadGraphPythia8EvtGen_A14N23LO_C1N2_Wh_hbb_700p0_500p0_lep
396825   125   0.0069900800   0.1899999976  1.  0.1021466135 
### 396826.MadGraphPythia8EvtGen_A14N23LO_C1N2_Wh_hbb_750p0_450p0_lep
396826   125   0.0049543800   0.1899999976  1.  0.1074473496 
### 396827.MadGraphPythia8EvtGen_A14N23LO_C1N2_Wh_hbb_750p0_500p0_lep
396827   125   0.0049543800   0.1899999976  1.  0.1074473496 
### 396828.MadGraphPythia8EvtGen_A14N23LO_C1N2_Wh_hbb_800p0_450p0_lep
396828   125   0.0035411100   0.1899999976  1.  0.1099127110 
### 396829.MadGraphPythia8EvtGen_A14N23LO_C1N2_Wh_hbb_800p0_500p0_lep
396829   125   0.0035411100   0.1899999976  1.  0.1099127110 
### 396830.MadGraphPythia8EvtGen_A14N23LO_C1N2_Wh_hbb_900p0_450p0_lep
396830   125   0.0018733800   0.1899999976  1.  0.1156551260 
### 396831.MadGraphPythia8EvtGen_A14N23LO_C1N2_Wh_hbb_900p0_500p0_lep
396831   125   0.0018733800   0.1899999976  1.  0.1156551260 
